<?xml version="1.0" encoding="UTF-8" standalone="no"?>
<!-- Created with Inkscape (http://www.inkscape.org/) -->

<svg
   width="32mm"
   height="32mm"
   viewBox="0 0 32 32"
   version="1.1"
   id="svg1"
   inkscape:version="1.3.2 (091e20ef0f, 2023-11-25, custom)"
   sodipodi:docname="3d_inkspace.svg"
   xml:space="preserve"
   xmlns:inkscape="http://www.inkscape.org/namespaces/inkscape"
   xmlns:sodipodi="http://sodipodi.sourceforge.net/DTD/sodipodi-0.dtd"
   xmlns="http://www.w3.org/2000/svg"
   xmlns:svg="http://www.w3.org/2000/svg"><sodipodi:namedview
     id="namedview1"
     pagecolor="#0e0e0e"
     bordercolor="#666666"
     borderopacity="1.0"
     inkscape:showpageshadow="2"
     inkscape:pageopacity="0.0"
     inkscape:pagecheckerboard="0"
     inkscape:deskcolor="#000000"
     inkscape:document-units="mm"
     inkscape:zoom="2.9878986"
     inkscape:cx="46.353649"
     inkscape:cy="55.3901"
     inkscape:window-width="1308"
     inkscape:window-height="801"
     inkscape:window-x="0"
     inkscape:window-y="0"
     inkscape:window-maximized="0"
     inkscape:current-layer="g2"
     showguides="true"
     showgrid="false"><sodipodi:guide
       position="30.999999,31.999998"
       orientation="-1,0"
       id="guide1"
       inkscape:locked="false"
       inkscape:label=""
       inkscape:color="rgb(192,97,203)" /><sodipodi:guide
       position="0,0.99999997"
       orientation="0,1"
       id="guide2"
       inkscape:locked="false"
       inkscape:label=""
       inkscape:color="rgb(192,97,203)" /><sodipodi:guide
       position="17.40828,30.999999"
       orientation="0,1"
       id="guide3"
       inkscape:locked="false"
       inkscape:label=""
       inkscape:color="rgb(192,97,203)" /><sodipodi:guide
       position="0.99999997,9.9999997"
       orientation="-1,0"
       id="guide4"
       inkscape:locked="false"
       inkscape:label=""
       inkscape:color="rgb(192,97,203)" /><sodipodi:guide
       position="16,31.999999"
       orientation="-1,0"
       id="guide5"
       inkscape:locked="false"
       inkscape:label=""
       inkscape:color="rgb(0,134,229)" /><sodipodi:guide
       position="4.4159861,22.688033"
       orientation="0.5,0.8660254"
       id="guide6"
       inkscape:locked="false"
       inkscape:label=""
       inkscape:color="rgb(0,134,229)" /><sodipodi:guide
       position="27.584013,22.688033"
       orientation="-0.5,0.8660254"
       id="guide7"
       inkscape:locked="false"
       inkscape:label=""
       inkscape:color="rgb(0,134,229)" /></sodipodi:namedview><defs
     id="defs1"><inkscape:perspective
       sodipodi:type="inkscape:persp3d"
       inkscape:vp_x="0.99999997 : 28.801315 : 1"
       inkscape:vp_y="6.123234e-14 : -1000 : 0"
       inkscape:vp_z="30.999999 : 28.047895 : 1"
       inkscape:persp3d-origin="16 : 10.666667 : 1"
       id="perspective1" /></defs><g
     inkscape:label="Layer 1"
     inkscape:groupmode="layer"
     id="layer1"><g
       style="fill:#000000"
       id="g13"
       transform="matrix(0.41339692,0,0,0.41339692,-88.993781,-97.104824)"><g
         id="g2"
         style="fill:#45c148;fill-opacity:1;stroke:none;stroke-opacity:1"
         transform="matrix(0.20626416,0,0,0.20626416,192.17725,231.42919)">
	
<g
   id="g8"><g
     id="g1"
     style="fill:none;fill-opacity:1;stroke:#ffffff;stroke-opacity:1;stroke-width:4.10465856;stroke-dasharray:none">
		
	<path
   sodipodi:type="star"
   style="fill:none;stroke-width:1.52628222;stroke:#ffffff;stroke-opacity:1;stroke-dasharray:none"
   id="path1"
   inkscape:flatsided="true"
   sodipodi:sides="6"
   sodipodi:cx="72.215782"
   sodipodi:cy="31.866825"
   sodipodi:r1="58.330437"
   sodipodi:r2="50.51564"
   sodipodi:arg1="2.6179939"
   sodipodi:arg2="3.1415927"
   inkscape:rounded="0"
   inkscape:randomized="0"
   d="m 21.700142,61.032042 1e-6,-58.3304364 50.51564,-29.1652176 50.515637,29.1652199 0,58.3304371 -50.515639,29.165217 z"
   transform="matrix(2.6893182,0,0,2.6893182,105.40889,118.74374)" /></g><path
     style="fill:none;stroke-width:4.10465856;stroke:#ffffff;stroke-opacity:1;stroke-dasharray:none"
     d="m 163.76748,126.00922 135.85264,78.43455 -10e-6,156.8691 v 0 0"
     id="path7" /><path
     style="fill:none;stroke:#ffffff;stroke-width:4.10465856;stroke-opacity:1;stroke-dasharray:none"
     d="m 435.47274,126.00922 -135.85262,78.43455 v 0"
     id="path8" /></g></g></g></g></svg>
