<?xml version="1.0" encoding="UTF-8" standalone="no"?>
<!-- Created with Inkscape (http://www.inkscape.org/) -->

<svg
   width="32mm"
   height="32mm"
   viewBox="0 0 32 32"
   version="1.1"
   id="svg1"
   inkscape:version="1.3.2 (091e20ef0f, 2023-11-25, custom)"
   sodipodi:docname="commean.svg"
   xml:space="preserve"
   xmlns:inkscape="http://www.inkscape.org/namespaces/inkscape"
   xmlns:sodipodi="http://sodipodi.sourceforge.net/DTD/sodipodi-0.dtd"
   xmlns="http://www.w3.org/2000/svg"
   xmlns:svg="http://www.w3.org/2000/svg"><sodipodi:namedview
     id="namedview1"
     pagecolor="#0e0e0e"
     bordercolor="#666666"
     borderopacity="1.0"
     inkscape:showpageshadow="2"
     inkscape:pageopacity="0.0"
     inkscape:pagecheckerboard="0"
     inkscape:deskcolor="#2a2a2a"
     inkscape:document-units="mm"
     inkscape:zoom="6.0674682"
     inkscape:cx="98.476"
     inkscape:cy="78.945614"
     inkscape:window-width="2500"
     inkscape:window-height="1362"
     inkscape:window-x="1950"
     inkscape:window-y="528"
     inkscape:window-maximized="1"
     inkscape:current-layer="layer1"
     showguides="true"
     showgrid="false"><sodipodi:guide
       position="30.999999,31.999998"
       orientation="-1,0"
       id="guide1"
       inkscape:locked="false"
       inkscape:label=""
       inkscape:color="rgb(192,97,203)" /><sodipodi:guide
       position="0,0.99999997"
       orientation="0,1"
       id="guide2"
       inkscape:locked="false"
       inkscape:label=""
       inkscape:color="rgb(192,97,203)" /><sodipodi:guide
       position="17.40828,30.999999"
       orientation="0,1"
       id="guide3"
       inkscape:locked="false"
       inkscape:label=""
       inkscape:color="rgb(192,97,203)" /><sodipodi:guide
       position="0.99999997,9.9999997"
       orientation="-1,0"
       id="guide4"
       inkscape:locked="false"
       inkscape:label=""
       inkscape:color="rgb(192,97,203)" /></sodipodi:namedview><defs
     id="defs1"><inkscape:path-effect
       effect="mirror_symmetry"
       start_point="129.241,84.555063"
       end_point="129.241,96.092343"
       center_point="129.241,90.323703"
       id="path-effect23508"
       is_visible="true"
       lpeversion="1.1"
       mode="free"
       discard_orig_path="false"
       fuse_paths="false"
       oposite_fuse="false"
       split_items="false"
       split_open="false"
       lpesatellites="" /><inkscape:path-effect
       effect="mirror_symmetry"
       start_point="129.241,84.555063"
       end_point="129.241,96.092343"
       center_point="129.241,90.323703"
       id="path-effect21795"
       is_visible="true"
       lpeversion="1.1"
       mode="free"
       discard_orig_path="false"
       fuse_paths="false"
       oposite_fuse="false"
       split_items="false"
       split_open="false" /><linearGradient
       id="linearGradient17439"
       inkscape:swatch="solid"><stop
         style="stop-color:#fefefe;stop-opacity:1;"
         offset="0"
         id="stop17437" /></linearGradient><inkscape:path-effect
       effect="mirror_symmetry"
       start_point="94.18802,60.743573"
       end_point="94.18802,72.110723"
       center_point="94.18802,66.427148"
       id="path-effect11228"
       is_visible="true"
       lpeversion="1.1"
       mode="free"
       discard_orig_path="false"
       fuse_paths="false"
       oposite_fuse="false"
       split_items="false"
       split_open="false" /></defs><g
     inkscape:label="Layer 1"
     inkscape:groupmode="layer"
     id="layer1"><g
       id="layer3"
       inkscape:label="Other"
       style="display:none;fill:none;stroke:#ffffff;stroke-width:1.17566;stroke-dasharray:none;stroke-opacity:1"
       transform="translate(46.882737,-0.16162125)"><path
         d="m 87.555761,51.983953 h -2.645833 l -1.322917,1.5875 v 0.79375 h 0.529167 a 0.79375,0.79375 0 0 0 0.79375,0.79375 0.79375,0.79375 0 0 0 0.79375,-0.79375 h 1.5875 a 0.79375,0.79375 0 0 0 0.79375,0.79375 0.79375,0.79375 0 0 0 0.79375,-0.79375 h 0.529167 v -0.79375 c 0,-0.293687 -0.23548,-0.529167 -0.529167,-0.529167 h -0.529167 l -0.79375,-1.058333 m -2.513541,0.396875 h 1.058333 v 0.661458 h -1.5875 l 0.529167,-0.661458 m 1.455208,0 h 0.926042 l 0.518583,0.661458 h -1.444625 v -0.661458 m -1.5875,1.5875 a 0.396875,0.396875 0 0 1 0.396875,0.396875 0.396875,0.396875 0 0 1 -0.396875,0.396875 0.396875,0.396875 0 0 1 -0.396875,-0.396875 0.396875,0.396875 0 0 1 0.396875,-0.396875 m 3.175,0 a 0.396875,0.396875 0 0 1 0.396875,0.396875 0.396875,0.396875 0 0 1 -0.396875,0.396875 0.396875,0.396875 0 0 1 -0.396875,-0.396875 0.396875,0.396875 0 0 1 0.396875,-0.396875 z"
         id="path13603"
         style="display:inline;stroke-width:0.264583"
         transform="translate(-46.543021,-57.855845)" /><path
         d="m 95.700262,54.784381 a 0.396875,0.396875 0 0 1 -0.396875,-0.396875 0.396875,0.396875 0 0 1 0.396875,-0.396875 0.396875,0.396875 0 0 1 0.396875,0.396875 0.396875,0.396875 0 0 1 -0.396875,0.396875 m 0.396875,-2.38125 0.518583,0.661458 h -1.180041 v -0.661458 m -2.910417,2.38125 a 0.396875,0.396875 0 0 1 -0.396875,-0.396875 0.396875,0.396875 0 0 1 0.396875,-0.396875 0.396875,0.396875 0 0 1 0.396875,0.396875 0.396875,0.396875 0 0 1 -0.396875,0.396875 m 3.704167,-2.778125 h -0.79375 v -1.058334 h -3.704167 c -0.293688,0 -0.529167,0.23548 -0.529167,0.529167 v 2.910417 h 0.529167 a 0.79375,0.79375 0 0 0 0.79375,0.79375 0.79375,0.79375 0 0 0 0.79375,-0.79375 h 1.5875 a 0.79375,0.79375 0 0 0 0.79375,0.79375 0.79375,0.79375 0 0 0 0.79375,-0.79375 h 0.529167 v -1.322917 z"
         id="path13612"
         style="display:inline;stroke-width:0.264583"
         transform="translate(-46.543021,-57.855845)" /></g><g
       id="g854"
       transform="translate(-1.1036982,-56.855845)"
       style="fill:none;stroke:#ffffff;stroke-width:1.17566;stroke-dasharray:none;stroke-opacity:1"><path
         id="rect1004"
         style="fill:#ffffff;fill-opacity:1;stroke:none;stroke-width:0.166636;stroke-linecap:round;stroke-linejoin:round;stroke-miterlimit:4;stroke-dasharray:none;stroke-opacity:1"
         d="m 21.027931,58.272777 c -5.957431,-10e-7 -10.798799,4.750884 -10.798771,10.594458 10e-7,2.683906 1.023242,5.13522 2.704837,7.003168 l -10.07108,9.878556 1.5176181,1.488606 10.1264099,-9.93231 c 1.812866,1.350867 4.072259,2.153826 6.521012,2.153825 5.957432,10e-7 10.80038,-4.748302 10.800047,-10.592173 3e-6,-5.843543 -4.842946,-10.594428 -10.800376,-10.594428 z m 0,1.166591 c 5.315409,10e-7 9.611579,4.214043 9.611582,9.427843 -3e-6,5.213792 -4.296174,9.427835 -9.611579,9.427839 -5.315411,-4e-6 -9.611582,-4.214047 -9.611582,-9.427843 0,-5.213796 4.296171,-9.427838 9.611579,-9.427839 z" /><g
         id="g1"><g
           id="g26256"
           transform="matrix(0.77330485,0,0,0.75852194,-61.468655,11.372575)"
           style="fill:#ffffff;fill-opacity:1;stroke:none;stroke-opacity:1"><g
             id="g26737"
             transform="translate(16.443476,-1.4054024)"
             inkscape:export-filename="/home/stefan/Downloads/g26737.png"
             inkscape:export-xdpi="905.33124"
             inkscape:export-ydpi="905.33124"
             style="fill:#ffffff;fill-opacity:1;stroke:none;stroke-opacity:1"><path
               d="m 90.956881,69.393789 c -0.102075,-0.296 -0.387863,-0.510346 -0.724692,-0.510346 h -5.613818 c -0.336829,0 -0.622625,0.214346 -0.724693,0.510346 l -1.061523,3.062083 v 4.082778 c 10e-7,0.281857 0.228492,0.510347 0.510349,0.510346 h 0.510346 c 0.281856,0 0.510346,-0.22849 0.510347,-0.510346 v -0.510347 h 6.124165 v 0.510347 c 10e-7,0.281857 0.228491,0.510347 0.510348,0.510346 h 0.510346 c 0.281856,0 0.510346,-0.22849 0.510347,-0.510346 v -4.082778 z"
               id="path26252"
               style="fill:#ffffff;fill-opacity:1;stroke:none;stroke-width:0.510346;stroke-opacity:1"
               sodipodi:nodetypes="csscccsssccsssccc" /><path
               d="m 90.232189,68.883443 h -5.613818 c -0.336829,0 -0.622625,0.214346 -0.724693,0.510346 l -1.061523,3.062083 v 4.082778 c 10e-7,0.281857 0.228492,0.510347 0.510349,0.510346 h 0.510346 c 0.281856,0 0.510346,-0.22849 0.510347,-0.510346 v -0.510347 h 6.124165 v 0.510347 c 10e-7,0.281857 0.228491,0.510347 0.510348,0.510346 h 0.510346 c 0.281856,0 0.510346,-0.22849 0.510347,-0.510346 v -4.082778 c -0.603006,-0.976013 -0.42908,-3.314612 -1.786214,-3.572429 z"
               id="path26254"
               style="fill:#ffffff;fill-opacity:1;stroke:none;stroke-width:0.510346;stroke-opacity:1"
               sodipodi:nodetypes="sscccsssccsssccs" /></g></g><g
           id="g24922"
           transform="matrix(0.85158221,0,0,0.83530291,-62.27354,9.8881425)"
           style="fill:#ffffff;fill-opacity:1;stroke:none"><path
             id="path23504"
             style="fill:#ffffff;fill-opacity:1;stroke:none;stroke-width:0.510347"
             d="m 125.76186,84.555063 c -0.24674,0 -0.80305,1.262243 -0.80305,1.550811 0.004,0.02091 3.3e-4,6.317292 5.1e-4,9.475906 2e-5,0.281858 0.22871,0.510564 0.51057,0.510564 h 0.51004 c 0.28186,0 0.51056,-0.228709 0.51057,-0.510564 v -0.510045 h 2.75022 c -7.8e-4,7.46e-4 2.8e-4,-0.354498 2.8e-4,-10.516641 z m 6.95828,0 c 0.24674,0 0.80305,1.262243 0.80305,1.550811 -0.004,0.02091 -3.3e-4,6.317292 -5.1e-4,9.475906 -2e-5,0.281858 -0.22871,0.510564 -0.51057,0.510564 h -0.51004 c -0.28186,0 -0.51056,-0.228709 -0.51057,-0.510564 v -0.510045 h -2.75022 c 7.8e-4,7.46e-4 -2.8e-4,-0.354498 -2.8e-4,-10.516641 z"
             transform="matrix(1.1617424,0,0,1.1617424,-51.019928,-35.578252)"
             sodipodi:nodetypes="ccsssccccc" /><path
             id="path21712"
             style="fill:#ffffff;fill-opacity:1;stroke:none;stroke-width:0.510347"
             d="m 125.76186,84.555063 c -0.24674,0 -0.80305,1.262243 -0.80305,1.550811 0.004,0.02091 3.3e-4,6.317292 5.1e-4,9.475906 2e-5,0.281858 0.22871,0.510564 0.51057,0.510564 h 0.51004 l 3.26107,-11.53725 z m 6.95828,0 c 0.24674,0 0.80305,1.262243 0.80305,1.550811 -0.004,0.02091 -3.3e-4,6.317292 -5.1e-4,9.475906 -2e-5,0.281858 -0.22871,0.510564 -0.51057,0.510564 h -0.51004 l -3.26107,-11.53725 z"
             transform="matrix(1.1617424,0,0,1.1617424,-51.01946,-35.578252)"
             sodipodi:nodetypes="ccssccc"
             inkscape:original-d="m 125.76186,84.555063 c -0.24674,0 -0.80305,1.262243 -0.80305,1.550811 0.004,0.02091 3.3e-4,6.317292 5.1e-4,9.475906 2e-5,0.281858 0.22871,0.510564 0.51057,0.510564 h 0.51004 l 3.26107,-11.53725 z"
             inkscape:path-effect="#path-effect21795" /></g><g
           id="g23502"
           transform="matrix(0.77330485,0,0,0.75852194,-49.042825,16.929292)"
           style="fill:#ffffff;fill-opacity:1;stroke:none"><path
             d="m 92.458746,69.605478 c -0.102075,-0.296 -0.387863,-0.510346 -0.724692,-0.510346 h -5.613818 c -0.336829,0 -0.622625,0.214346 -0.724693,0.510346 l -1.061523,3.062083 v 4.082778 c 1e-6,0.281857 0.228492,0.510347 0.510349,0.510346 h 0.510346 c 0.281856,0 0.510346,-0.22849 0.510347,-0.510346 v -0.510347 h 6.124165 v 0.510347 c 10e-7,0.281857 0.228491,0.510347 0.510348,0.510346 h 0.510346 c 0.281856,0 0.510346,-0.22849 0.510347,-0.510346 v -4.082778 z"
             id="path22973"
             style="fill:#ffffff;fill-opacity:1;stroke:none;stroke-width:0.510346"
             sodipodi:nodetypes="csscccsssccsssccc" /><path
             d="m 92.459084,69.605478 c -0.102075,-0.296 -0.387863,-0.510346 -0.724692,-0.510346 h -5.613818 c -0.336829,0 -0.622625,0.214346 -0.724693,0.510346 l -1.061523,3.062083 v 4.082778 c 1e-6,0.281857 0.228492,0.510347 0.510349,0.510346 h 0.510346 c 0.281856,0 0.510346,-0.22849 0.510347,-0.510346 v -0.510347 h 6.124165 v 0.510347 c 10e-7,0.281857 0.228491,0.510347 0.510348,0.510346 h 0.510346 c 0.281856,0 0.510346,-0.22849 0.510347,-0.510346 v -4.082778 z"
             id="path6406"
             style="fill:#ffffff;fill-opacity:1;stroke:none;stroke-width:0.510346"
             sodipodi:nodetypes="csscccsssccsssccc" /></g></g></g></g></svg>
